final_submission/auxiliary_files_do_not_submit/MyDesign_final_Verification/MyDesign_final.vcd
$date
	Mon Nov 26 20:33:47 2018
$end
$version
	ModelSim Version 10.6c
$end
$timescale
	1ns
$end

$scope module tb_top $end
$var parameter 32 ! CLK_PHASE $end
$var parameter 32 " OUTPUT_LENGTH $end
$var parameter 32 # MAX_MESSAGE_LENGTH $end
$var parameter 32 $ NUMBER_OF_Ks $end
$var parameter 32 % NUMBER_OF_Hs $end
$var parameter 32 & SYMBOL_WIDTH $end
$var reg 1 ' clk $end
$var reg 1 ( reset $end
$var reg 1 ) xxx__dut__go $end
$var reg 7 * xxx__dut__msg_length [6:0] $end
$var wire 1 + dut__xxx__finish $end
$var integer 32 , runId $end
$var integer 32 - numberOfClocks $end
$var reg 1 . dutRunning $end
$var reg 1 / waitForFinishLow $end
$var wire 1 0 dut__msg__address [5] $end
$var wire 1 1 dut__msg__address [4] $end
$var wire 1 2 dut__msg__address [3] $end
$var wire 1 3 dut__msg__address [2] $end
$var wire 1 4 dut__msg__address [1] $end
$var wire 1 5 dut__msg__address [0] $end
$var wire 1 6 dut__msg__enable $end
$var wire 1 7 dut__msg__write $end
$var wire 1 8 msg__dut__data [7] $end
$var wire 1 9 msg__dut__data [6] $end
$var wire 1 : msg__dut__data [5] $end
$var wire 1 ; msg__dut__data [4] $end
$var wire 1 < msg__dut__data [3] $end
$var wire 1 = msg__dut__data [2] $end
$var wire 1 > msg__dut__data [1] $end
$var wire 1 ? msg__dut__data [0] $end
$var wire 1 @ dut__kmem__address [5] $end
$var wire 1 A dut__kmem__address [4] $end
$var wire 1 B dut__kmem__address [3] $end
$var wire 1 C dut__kmem__address [2] $end
$var wire 1 D dut__kmem__address [1] $end
$var wire 1 E dut__kmem__address [0] $end
$var wire 1 F dut__kmem__enable $end
$var wire 1 G dut__kmem__write $end
$var wire 1 H kmem__dut__data [31] $end
$var wire 1 I kmem__dut__data [30] $end
$var wire 1 J kmem__dut__data [29] $end
$var wire 1 K kmem__dut__data [28] $end
$var wire 1 L kmem__dut__data [27] $end
$var wire 1 M kmem__dut__data [26] $end
$var wire 1 N kmem__dut__data [25] $end
$var wire 1 O kmem__dut__data [24] $end
$var wire 1 P kmem__dut__data [23] $end
$var wire 1 Q kmem__dut__data [22] $end
$var wire 1 R kmem__dut__data [21] $end
$var wire 1 S kmem__dut__data [20] $end
$var wire 1 T kmem__dut__data [19] $end
$var wire 1 U kmem__dut__data [18] $end
$var wire 1 V kmem__dut__data [17] $end
$var wire 1 W kmem__dut__data [16] $end
$var wire 1 X kmem__dut__data [15] $end
$var wire 1 Y kmem__dut__data [14] $end
$var wire 1 Z kmem__dut__data [13] $end
$var wire 1 [ kmem__dut__data [12] $end
$var wire 1 \ kmem__dut__data [11] $end
$var wire 1 ] kmem__dut__data [10] $end
$var wire 1 ^ kmem__dut__data [9] $end
$var wire 1 _ kmem__dut__data [8] $end
$var wire 1 ` kmem__dut__data [7] $end
$var wire 1 a kmem__dut__data [6] $end
$var wire 1 b kmem__dut__data [5] $end
$var wire 1 c kmem__dut__data [4] $end
$var wire 1 d kmem__dut__data [3] $end
$var wire 1 e kmem__dut__data [2] $end
$var wire 1 f kmem__dut__data [1] $end
$var wire 1 g kmem__dut__data [0] $end
$var wire 1 h dut__hmem__address [2] $end
$var wire 1 i dut__hmem__address [1] $end
$var wire 1 j dut__hmem__address [0] $end
$var wire 1 k dut__hmem__enable $end
$var wire 1 l dut__hmem__write $end
$var wire 1 m hmem__dut__data [31] $end
$var wire 1 n hmem__dut__data [30] $end
$var wire 1 o hmem__dut__data [29] $end
$var wire 1 p hmem__dut__data [28] $end
$var wire 1 q hmem__dut__data [27] $end
$var wire 1 r hmem__dut__data [26] $end
$var wire 1 s hmem__dut__data [25] $end
$var wire 1 t hmem__dut__data [24] $end
$var wire 1 u hmem__dut__data [23] $end
$var wire 1 v hmem__dut__data [22] $end
$var wire 1 w hmem__dut__data [21] $end
$var wire 1 x hmem__dut__data [20] $end
$var wire 1 y hmem__dut__data [19] $end
$var wire 1 z hmem__dut__data [18] $end
$var wire 1 { hmem__dut__data [17] $end
$var wire 1 | hmem__dut__data [16] $end
$var wire 1 } hmem__dut__data [15] $end
$var wire 1 ~ hmem__dut__data [14] $end
$var wire 1 !! hmem__dut__data [13] $end
$var wire 1 "! hmem__dut__data [12] $end
$var wire 1 #! hmem__dut__data [11] $end
$var wire 1 $! hmem__dut__data [10] $end
$var wire 1 %! hmem__dut__data [9] $end
$var wire 1 &! hmem__dut__data [8] $end
$var wire 1 '! hmem__dut__data [7] $end
$var wire 1 (! hmem__dut__data [6] $end
$var wire 1 )! hmem__dut__data [5] $end
$var wire 1 *! hmem__dut__data [4] $end
$var wire 1 +! hmem__dut__data [3] $end
$var wire 1 ,! hmem__dut__data [2] $end
$var wire 1 -! hmem__dut__data [1] $end
$var wire 1 .! hmem__dut__data [0] $end
$var wire 1 /! dut__dom__address [2] $end
$var wire 1 0! dut__dom__address [1] $end
$var wire 1 1! dut__dom__address [0] $end
$var wire 1 2! dut__dom__data [31] $end
$var wire 1 3! dut__dom__data [30] $end
$var wire 1 4! dut__dom__data [29] $end
$var wire 1 5! dut__dom__data [28] $end
$var wire 1 6! dut__dom__data [27] $end
$var wire 1 7! dut__dom__data [26] $end
$var wire 1 8! dut__dom__data [25] $end
$var wire 1 9! dut__dom__data [24] $end
$var wire 1 :! dut__dom__data [23] $end
$var wire 1 ;! dut__dom__data [22] $end
$var wire 1 <! dut__dom__data [21] $end
$var wire 1 =! dut__dom__data [20] $end
$var wire 1 >! dut__dom__data [19] $end
$var wire 1 ?! dut__dom__data [18] $end
$var wire 1 @! dut__dom__data [17] $end
$var wire 1 A! dut__dom__data [16] $end
$var wire 1 B! dut__dom__data [15] $end
$var wire 1 C! dut__dom__data [14] $end
$var wire 1 D! dut__dom__data [13] $end
$var wire 1 E! dut__dom__data [12] $end
$var wire 1 F! dut__dom__data [11] $end
$var wire 1 G! dut__dom__data [10] $end
$var wire 1 H! dut__dom__data [9] $end
$var wire 1 I! dut__dom__data [8] $end
$var wire 1 J! dut__dom__data [7] $end
$var wire 1 K! dut__dom__data [6] $end
$var wire 1 L! dut__dom__data [5] $end
$var wire 1 M! dut__dom__data [4] $end
$var wire 1 N! dut__dom__data [3] $end
$var wire 1 O! dut__dom__data [2] $end
$var wire 1 P! dut__dom__data [1] $end
$var wire 1 Q! dut__dom__data [0] $end
$var wire 1 R! dut__dom__enable $end
$var wire 1 S! dut__dom__write $end
$upscope $end
$enddefinitions $end
#0
$dumpvars
0'
x(
x)
bx *
0.
1/
b101 !
b1000 "
b110111 #
b1000000 $
b1000 %
b1000 &
b0 ,
bx -
x+
x5
x4
x3
x2
x1
x0
x6
07
x?
x>
x=
x<
x;
x:
x9
x8
xE
xD
xC
xB
xA
x@
xF
0G
xg
xf
xe
xd
xc
xb
xa
x`
x_
x^
x]
x\
x[
xZ
xY
xX
xW
xV
xU
xT
xS
xR
xQ
xP
xO
xN
xM
xL
xK
xJ
xI
xH
xj
xi
xh
xk
0l
x.!
x-!
x,!
x+!
x*!
x)!
x(!
x'!
x&!
x%!
x$!
x#!
x"!
x!!
x~
x}
x|
x{
xz
xy
xx
xw
xv
xu
xt
xs
xr
xq
xp
xo
xn
xm
x1!
x0!
x/!
xQ!
xP!
xO!
xN!
xM!
xL!
xK!
xJ!
xI!
xH!
xG!
xF!
xE!
xD!
xC!
xB!
xA!
x@!
x?!
x>!
x=!
x<!
x;!
x:!
x9!
x8!
x7!
x6!
x5!
x4!
x3!
x2!
xR!
1S!
$end
#4
0W
0U
0S
0R
0Q
0O
0M
0L
0K
0J
0H
0{
0z
0x
0w
0v
0u
0t
0r
0p
0m
#5
1'
#10
0'
#15
1'
#20
0'
#25
1'
#30
0'
#35
1'
#40
0'
#45
1'
#50
0'
#55
1'
#60
0'
#65
1'
#70
0'
#75
1'
#80
0'
#85
1'
#90
0'
#95
1'
0(
0)
b101 *
#100
0'
#105
1'
#110
0'
#115
1'
#120
0'
#125
1'
#130
0'
#135
1'
#140
0'
#145
1'
#150
0'
#155
1'
#160
0'
#165
1'
#170
0'
#175
1'
#180
0'
#185
1'
#190
0'
#195
1'
1(
#200
0'
#205
1'
#210
0'
#215
1'
0F
00
01
02
03
04
05
06
0+
0k
0R!
#219
0|
0y
0s
0q
0o
0n
0V
0T
0P
0N
0I
#220
0'
#225
1'
0/
#230
0'
#235
1'
#240
0'
#245
1'
#250
0'
#255
1'
#260
0'
#265
1'
#270
0'
#275
1'
#280
0'
#285
1'
#290
0'
#295
1'
0(
#300
0'
#305
1'
1)
#310
0'
#315
1'
b0 -
1.
0)
0i
00!
0j
01!
0h
0/!
#320
0'
#325
1'
b1 -
#330
0'
#335
1'
b10 -
1k
0@
0A
0B
0C
0D
0E
#339
1.!
1-!
1,!
0+!
0*!
1)!
1(!
0'!
0&!
1%!
1$!
0#!
0"!
1!!
1~
1}
1|
1y
1s
1q
1o
1n
#340
0'
#345
1'
b11 -
16
1j
11!
#349
0-!
0)!
0(!
1'!
1#!
0~
1{
1z
0y
1w
1v
1t
1p
0n
1m
0?
0>
0=
1<
0;
0:
19
08
#350
0'
#355
1'
b100 -
15
1i
10!
0j
01!
#359
0.!
1-!
0,!
1*!
1)!
1(!
0'!
1&!
0$!
0#!
1"!
1~
0|
1y
0t
0s
1r
0m
1?
1=
0<
1:
#360
0'
#365
1'
b101 -
14
05
1j
11!
#369
1+!
0(!
0%!
1$!
1|
0w
1t
0q
0p
1m
0?
1<
#370
0'
#375
1'
b110 -
15
0i
00!
0j
01!
1h
1/!
#379
1.!
1,!
1(!
0&!
1%!
0$!
0!!
0}
0|
0v
0r
1p
0o
1n
0m
#380
0'
#385
1'
b111 -
13
04
05
1j
11!
#389
0.!
0-!
0*!
0)!
0(!
1'!
0%!
1#!
0"!
1!!
1|
0{
0y
1s
1q
0n
1m
1?
1>
#390
0'
#395
1'
b1000 -
15
1i
10!
0j
01!
#399
1.!
1-!
0,!
1)!
1&!
1"!
0!!
1}
1{
0z
1u
1r
0m
0?
0>
0=
0<
0:
09
#400
0'
#405
1'
b1001 -
14
05
06
1j
11!
#409
0-!
1*!
0)!
0'!
1$!
0"!
0|
0{
1w
1v
0r
1n
x?
x>
x=
x<
x;
x:
x9
x8
#410
0'
#415
1'
b1010 -
15
0k
0i
00!
0j
01!
0h
0/!
#419
x.!
x-!
x,!
x+!
x*!
x)!
x(!
x'!
x&!
x%!
x$!
x#!
x"!
x!!
x~
x}
0w
0v
0u
0t
0s
0q
0p
0n
#420
0'
#425
1'
b1011 -
03
04
05
#430
0'
#435
1'
b1100 -
#440
0'
#445
1'
b1101 -
#450
0'
#455
1'
b1110 -
#460
0'
#465
1'
b1111 -
#470
0'
#475
1'
b10000 -
#480
0'
#485
1'
b10001 -
#490
0'
#495
1'
b10010 -
#500
0'
#505
1'
b10011 -
#510
0'
#515
1'
b10100 -
1F
#519
0g
0f
0e
1d
1c
0b
0a
1`
1_
1^
1]
1\
0[
1Z
0Y
0X
1V
1T
1P
1N
1I
#520
0'
#525
1'
b10101 -
1E
#529
1g
0d
0_
0^
0\
0Z
1Y
1W
1U
0T
1S
1R
0P
1O
0N
1K
1J
#530
0'
#535
1'
b10110 -
1D
0E
#539
1f
1e
1d
0c
1a
1_
1^
0]
1\
1[
1Z
1X
0W
0V
0U
0S
0R
1Q
1P
1M
0I
1H
#540
0'
#545
1'
b10111 -
1E
#549
0f
0d
1b
0a
0Z
1W
1U
1S
1R
0Q
0M
1L
0K
1I
#550
0'
#555
1'
b11000 -
1C
0D
0E
#559
1f
0e
1d
1c
0b
1a
0`
0_
0\
0[
0W
1V
0R
1Q
0P
1K
0I
0H
#560
0'
#565
1'
b11001 -
1E
#569
0f
0d
1b
1`
1_
0^
1[
0Y
0X
1W
0V
0U
1R
1P
0J
1I
#570
0'
#575
1'
b11010 -
1D
0E
#579
0g
1e
0c
0a
0_
1^
0[
1X
1V
1U
1T
0Q
0P
0O
1N
0L
0I
1H
#580
0'
#585
1'
b11011 -
1E
#589
1g
1c
0b
1a
1]
1\
1[
1Y
0X
0W
0V
0R
1O
1L
0K
1J
#590
0'
#595
1'
b11100 -
0D
0C
1B
0E
#599
0g
0e
1d
0a
0]
0[
1Z
0Y
1X
1W
1V
0T
0S
0O
0N
1K
0J
1I
#600
0'
#605
1'
b11101 -
1E
#609
1g
0d
0c
0`
1_
1[
0Z
1Y
0X
0U
1P
1N
0L
0I
0H
#610
0'
#615
1'
b11110 -
1D
0E
#619
0g
1f
1e
1d
1c
1b
1`
0^
1]
0\
0[
0Y
1X
0V
1S
1R
0P
0N
1M
0K
1J
#620
0'
#625
1'
b11111 -
1E
#629
1g
0e
0d
0c
0b
1a
1\
1[
1Z
1Y
0X
0W
1U
1T
0S
0R
1O
1K
0J
1I
#630
0'
#635
1'
b100000 -
0D
1C
0E
#639
0g
0f
1e
1c
1b
0`
0Z
1V
1S
1R
1P
0O
1N
0M
1J
#640
0'
#645
1'
b100001 -
1E
#649
1f
1d
1`
0]
0\
1Z
0Y
1X
0R
1Q
0N
0K
0J
0I
1H
#650
0'
#655
1'
b100010 -
1D
0E
#659
1g
0d
0c
0a
0_
1^
1]
0[
0Z
0X
0V
1O
1N
1L
1K
#660
0'
#665
1'
b100011 -
1E
#669
0g
0f
1c
1a
0`
1_
0^
0]
1[
1Z
1Y
1X
1W
1V
0U
0Q
0N
0L
0K
1I
#670
0'
#675
1'
b100100 -
1A
0B
0C
0D
0E
#679
1g
0e
0c
0b
1`
1\
0[
0X
0O
1M
1J
#680
0'
#685
1'
b100101 -
1E
#689
0g
1f
1e
0a
1^
1]
0\
0Z
0W
1U
1R
1O
1N
1L
#690
0'
#695
1'
b100110 -
1D
0E
#699
1a
0^
1\
1[
0Y
1X
1W
0V
0U
0T
0S
0R
1Q
0J
0I
0H
#700
0'
#705
1'
b100111 -
1E
#709
0f
1d
0]
0\
0[
1Z
0W
1U
1T
0Q
0P
0O
0N
0L
1J
#710
0'
#715
1'
b101000 -
1C
0D
0E
#719
1g
1f
1b
0`
0_
1]
1\
0X
1W
0U
1R
1Q
1P
1O
1L
#720
0'
#725
1'
b101001 -
1E
#729
0g
0e
0a
1`
0\
0Z
1X
0W
1U
0T
1S
0P
0O
1N
0M
0J
1I
#730
0'
#735
1'
b101010 -
1D
0E
#739
0f
1e
1c
0b
1a
1_
0]
1\
1Z
0U
0Q
1P
0N
1M
1K
#740
0'
#745
1'
b101011 -
1E
#749
1f
0e
0_
0Z
1W
1T
1Q
1N
0L
1J
#750
0'
#755
1'
b101100 -
1B
0C
0D
0E
#759
0d
0`
1_
0\
1[
1Y
0X
0W
1V
1U
0Q
0P
0N
0M
1L
0J
0I
1H
#760
0'
#765
1'
b101101 -
1E
#769
1g
0f
1e
1d
0c
1b
0_
1^
1]
0[
1X
1W
0V
0U
0T
0K
1J
#770
0'
#775
1'
b101110 -
1D
0E
#779
0g
0e
0b
1`
1_
1Z
0Y
0X
1V
0S
0R
0L
1K
#780
0'
#785
1'
b101111 -
1E
#789
1g
1f
1e
0d
1\
1[
1Y
0V
1T
1S
1Q
1O
1N
1M
1L
#790
0'
#795
1'
b110000 -
1C
0D
0E
#799
0e
1c
1b
0]
0[
0Z
0Y
0W
0T
0S
1R
1P
0O
0L
0K
0J
1I
#800
0'
#805
1'
b110001 -
1E
#809
1e
0c
0b
0`
0^
0\
1[
1X
1W
1V
1U
0Q
1O
0N
1K
#810
0'
#815
1'
b110010 -
1D
0E
#819
0f
0e
1c
1^
0[
1Z
1Y
0X
0W
0U
1T
0R
1Q
0O
1N
0K
0I
0H
#820
0'
#825
1'
b110011 -
1E
#829
1f
1e
0c
1b
0^
1\
0Y
1W
0V
1R
0Q
0P
0N
1K
#830
0'
#835
1'
b110100 -
1@
0A
0B
0C
0D
0E
#839
0f
0b
0a
1`
0_
1^
0Z
1V
1U
0T
1S
1P
1O
1N
0K
1J
#840
0'
#845
1'
b110101 -
1E
#849
0g
0e
1d
1c
1b
0`
1_
0^
0\
1Z
0U
1T
0R
0P
0O
1L
#850
0'
#855
1'
b110110 -
1D
0E
#859
1e
1a
1`
1]
1\
1Y
0W
0V
1U
0S
1R
1O
0N
0J
1I
#860
0'
#865
1'
b110111 -
1E
#869
1g
1f
0e
0d
0b
0a
0`
0Z
0Y
0U
1S
1N
0M
0L
1K
#870
0'
#875
1'
b111000 -
1C
0D
0E
#879
0g
0f
1e
1a
1^
0]
0\
1[
1Z
1Y
1V
0S
0R
0N
1M
0K
1J
#880
0'
#885
1'
b111001 -
1E
#889
1g
1f
0e
1d
1b
0a
1`
0_
1\
0[
0Z
0Y
1R
1Q
0O
1N
1K
#890
0'
#895
1'
b111010 -
1D
0E
#899
0g
1e
0c
0`
1_
0^
1Y
1X
0T
0R
1P
1O
0N
0M
0K
0J
0I
1H
#900
0'
#905
1'
b111011 -
1E
#909
1g
0f
0d
0b
1`
0_
1]
1Z
0Y
0X
1S
1R
0P
0O
1N
1K
#910
0'
#915
1'
b111100 -
1B
0C
0D
0E
#919
0e
1b
0]
1Y
1X
1W
1U
1T
0Q
1P
0K
1J
#920
0'
#925
1'
b111101 -
1E
#929
1f
1d
0b
1a
0`
1^
1]
0\
0X
0W
0U
0R
0P
0N
1L
#930
0'
#935
1'
b111110 -
1D
0E
#939
0g
0f
0d
1c
1b
1_
0]
1\
0Z
0Y
1X
1W
0S
1Q
1N
0L
0J
1I
#940
0'
#945
1'
b111111 -
1E
#949
1g
1f
0c
0a
1`
0^
0\
1[
1Y
0X
0W
0V
1U
1R
1O
1M
#950
0'
#955
1'
b1000000 -
1C
0D
0E
#959
0f
1d
1c
0b
0`
0_
1\
0[
1Z
1X
1V
0U
0T
1S
0R
0Q
1P
0N
0M
1K
#960
0'
#965
1'
b1000001 -
1E
#969
0g
1e
0d
0c
1b
1^
1]
0\
0Z
0Y
0X
1W
0V
1T
0O
1N
1M
#970
0'
#975
1'
b1000010 -
1D
0E
#979
1g
0b
1`
1_
0^
1[
1Z
0W
1V
1U
0S
0P
0N
1J
#980
0'
#985
1'
b1000011 -
1E
#989
0g
0e
1c
1b
1a
0`
0_
0]
0[
1X
0U
1R
1Q
0M
0J
0I
0H
#990
0'
#995
1'
b1000100 -
1A
0B
0C
0D
0E
#999
1f
1e
0b
0a
1_
0Z
1Y
0V
1U
0T
0Q
1P
1O
1L
#1000
0'
#1005
1'
b1000101 -
1E
#1009
0f
0e
1d
0c
0_
1]
1\
1Z
0X
1W
1V
1S
0P
0O
1N
1M
#1010
0'
#1015
1'
b1000110 -
1D
0E
#1019
1e
1a
1_
1^
0\
1[
0W
0V
0U
1T
0S
0R
1Q
1O
0L
0K
1J
#1020
0'
#1025
1'
b1000111 -
1E
#1029
1g
0d
1c
1b
0a
1`
0_
0^
1\
0Y
1X
0T
1S
1R
0Q
1P
0O
0N
1K
#1030
0'
#1035
1'
b1001000 -
1C
0D
0E
#1039
1f
0e
0[
0Z
0X
1U
1T
0R
0P
1O
0M
1L
#1040
0'
#1045
1'
b1001001 -
1E
#1049
0g
1d
0c
0b
1a
0`
1^
0]
1Z
1X
0U
1Q
1P
0O
1N
1M
0K
0J
1I
#1050
0'
#1055
1'
b1001010 -
1D
0E
#1059
1g
1e
0Z
1Y
1U
0Q
1O
0M
1K
#1060
0'
#1065
1'
b1001011 -
1E
#1069
0e
0d
1c
1b
1`
1_
1]
1Z
0X
1V
0S
1R
0P
0O
0N
0K
1J
#1070
0'
#1075
1'
b1001100 -
1B
0C
0D
0E
#1079
0g
1e
1d
0c
0_
0]
0\
0Z
0Y
1X
1W
0R
1P
1M
0L
1K
#1080
0'
#1085
1'
b1001101 -
1E
#1089
1g
0`
1_
1Z
1Y
0X
0V
0T
1R
0M
1L
#1090
0'
#1095
1'
b1001110 -
1D
0E
#1099
0g
0f
0d
1c
0b
0a
0_
0^
1\
1[
0W
0U
1T
0R
1Q
1M
0L
0K
0J
0I
1H
#1100
0'
#1105
1'
b1001111 -
1E
#1109
0e
1d
0c
1^
0\
0[
0Z
0Y
1W
1V
1U
0T
1L
#1110
0'
#1115
1'
b1010000 -
1C
0D
0E
#1119
1f
1c
1b
1a
1`
1_
1]
1\
1[
1Z
1Y
1X
0W
1T
1S
1R
0Q
0M
0L
1K
#1120
0'
#1125
1'
b1010001 -
1E
#1129
1g
0c
0_
0^
0[
0X
0V
0U
0T
0R
1Q
0P
1M
0K
1J
#1130
0'
#1135
1'
b1010010 -
1D
0E
#1139
1e
0d
1c
1_
1^
0]
0\
0Y
1X
1W
1T
1R
1P
1N
1L
1K
#1140
0'
#1145
1'
b1010011 -
1E
#1149
0g
0e
0_
0^
1\
1[
1Y
0X
0T
0P
0L
0K
0J
1I
#1150
0'
#1155
1'
b1010100 -
0@
0A
0B
0C
0D
0E
#1159
0f
1d
0b
0a
1_
1^
1]
0[
0Y
0W
1V
1T
0S
0R
0Q
1P
0M
0H
#1160
0'
#1165
1'
b1010101 -
1E
#1169
1g
0d
0_
0^
0\
0Z
1Y
1W
1U
0T
1S
1R
0P
1O
0N
1K
1J
#1170
0'
#1175
1'
b1010110 -
1D
0E
1k
#1179
1.!
1-!
1,!
0+!
0*!
1)!
1(!
0'!
0&!
1%!
1$!
0#!
0"!
1!!
1~
1}
1|
1y
1s
1q
1o
1n
1f
1e
1d
0c
1a
1_
1^
0]
1\
1[
1Z
1X
0W
0V
0U
0S
0R
1Q
1P
1M
0I
1H
#1180
0'
#1185
1'
b1010111 -
1E
11!
1j
#1189
0-!
0)!
0(!
1'!
1#!
0~
1{
1z
0y
1w
1v
1t
1p
0n
1m
0f
0d
1b
0a
0Z
1W
1U
1S
1R
0Q
0M
1L
0K
1I
#1190
0'
#1195
1'
b1011000 -
1C
0D
0E
01!
0j
10!
1i
#1199
0.!
1-!
0,!
1*!
1)!
1(!
0'!
1&!
0$!
0#!
1"!
1~
0|
1y
0t
0s
1r
0m
1f
0e
1d
1c
0b
1a
0`
0_
0\
0[
0W
1V
0R
1Q
0P
1K
0I
0H
#1200
0'
#1205
1'
b1011001 -
1j
11!
#1209
1+!
0(!
0%!
1$!
1|
0w
1t
0q
0p
1m
#1210
0'
#1215
1'
b1011010 -
01!
0j
00!
0i
1/!
1h
#1219
1.!
1,!
1(!
0&!
1%!
0$!
0!!
0}
0|
0v
0r
1p
0o
1n
0m
#1220
0'
#1225
1'
b1011011 -
11!
1j
#1229
0.!
0-!
0*!
0)!
0(!
1'!
0%!
1#!
0"!
1!!
1|
0{
0y
1s
1q
0n
1m
#1230
0'
#1235
1'
b1011100 -
1i
10!
01!
0j
#1239
1.!
1-!
0,!
1)!
1&!
1"!
0!!
1}
1{
0z
1u
1r
0m
#1240
0'
#1245
1'
b1011101 -
11!
1j
#1249
0-!
1*!
0)!
0'!
1$!
0"!
0|
0{
1w
1v
0r
1n
#1250
0'
#1255
1'
b1011110 -
0i
00!
0h
0/!
0k
01!
0j
#1259
x.!
x-!
x,!
x+!
x*!
x)!
x(!
x'!
x&!
x%!
x$!
x#!
x"!
x!!
x~
x}
0w
0v
0u
0t
0s
0q
0p
0n
#1260
0'
#1265
1'
b1011111 -
#1270
0'
#1275
1'
b1100000 -
0F
1I!
1R!
1Q!
1P!
0O!
0N!
1M!
1L!
0K!
1J!
0H!
1G!
1F!
0E!
0D!
0C!
1B!
1A!
1@!
1?!
1>!
1=!
0<!
1;!
0:!
09!
08!
07!
16!
15!
04!
03!
02!
#1279
xg
xf
xe
xd
xc
xb
xa
x`
x_
x^
x]
x\
x[
xZ
xY
xX
0V
0U
0S
0Q
0O
0L
0K
0J
#1280
0'
#1285
1'
b1100001 -
1j
11!
0I!
0P!
1O!
0M!
0J!
1H!
1E!
1D!
1C!
0@!
0?!
0>!
1<!
18!
06!
05!
14!
#1290
0'
#1295
1'
b1100010 -
1J!
1M!
0E!
01!
0C!
0j
10!
1i
0Q!
0F!
0=!
1N!
08!
1K!
19!
15!
17!
13!
12!
#1300
0'
#1305
1'
b1100011 -
0J!
0M!
11!
1j
0B!
0<!
0;!
04!
1F!
1P!
0N!
18!
0K!
1@!
1>!
07!
03!
1:!
#1310
0'
#1315
1'
b1100100 -
00!
0i
1M!
01!
1/!
0j
1B!
1h
1C!
1?!
0P!
0O!
0H!
0A!
05!
0>!
02!
13!
0:!
#1320
0'
#1325
1'
b1100101 -
0M!
0L!
11!
0G!
1j
0B!
0F!
0D!
09!
0?!
1J!
1I!
1E!
1=!
1;!
1>!
17!
16!
1:!
#1330
0'
#1335
1'
b1100110 -
10!
01!
1G!
0j
1i
1D!
19!
0@!
0J!
0I!
03!
1N!
1K!
0>!
1H!
06!
1A!
#1340
0'
#1345
1'
b1100111 -
11!
0G!
1j
0C!
0;!
0D!
09!
0:!
1Q!
1I!
1L!
1F!
1<!
1>!
0H!
14!
0A!
#1350
0'
#1355
1'
b1101000 -
0j
01!
00!
0i
0/!
0h
0R!
1+
#1360
0'
#1365
1'
0.
1/
b1 ,
#1370
0'
#1375
1'
b1101001 -
#1380
0'
#1385
1'
b1101010 -
#1390
0'
#1395
1'
b1101011 -
#1400
0'
#1405
1'
b1101100 -
#1410
0'
#1415
1'
b1101101 -
#1420
0'
#1425
1'
b1101110 -
#1430
0'
#1435
1'
b1101111 -
#1440
0'
#1445
1'
b1110000 -
#1450
0'
#1455
1'
b1110001 -
#1460
0'
#1465
1'
b1110010 -
#1470
0'
#1475
1'
b1110011 -
#1480
0'
#1485
1'
b1110100 -
#1490
0'
#1495
1'
b1110101 -
#1500
0'
#1505
1'
b1110110 -
#1510
0'
#1515
1'
b1110111 -
#1520
0'
#1525
1'
b1111000 -
#1530
0'
#1535
1'
b1111001 -
#1540
0'
#1545
1'
b1111010 -
#1550
0'
#1555
1'
b1111011 -
#1560
0'
#1565
1'
b1111100 -
#1570
0'
#1575
1'
b1111101 -
#1580
0'
#1585
1'
b1111110 -
#1590
0'
#1595
1'
b1111111 -
#1600
0'
#1605
1'
b10000000 -
#1610
0'
#1615
1'
b10000001 -
#1620
0'
#1625
1'
b10000010 -
#1630
0'
#1635
1'
b10000011 -
#1640
0'
#1645
1'
b10000100 -
#1650
0'
#1655
1'
b10000101 -
#1660
0'
#1665
1'
b10000110 -
#1670
0'
#1675
1'
b10000111 -
#1680
0'
#1685
1'
b10001000 -
#1690
0'
#1695
1'
b10001001 -
#1700
0'
#1705
1'
b10001010 -
#1710
0'
#1715
1'
b10001011 -
#1720
0'
#1725
1'
b10001100 -
#1730
0'
#1735
1'
b10001101 -
#1740
0'
#1745
1'
b10001110 -
#1750
0'
#1755
1'
b10001111 -
#1760
0'
#1765
1'
b10010000 -
#1770
0'
#1775
1'
b10010001 -
#1780
0'
#1785
1'
b10010010 -
#1790
0'
#1795
1'
b10010011 -
#1800
0'
#1805
1'
b10010100 -
#1810
0'
#1815
1'
b10010101 -
#1820
0'
#1825
1'
b10010110 -
#1830
0'
#1835
1'
b10010111 -
#1840
0'
#1845
1'
b10011000 -
#1850
0'
#1855
1'
b10011001 -
#1860
0'
#1865
1'
b10011010 -
#1870
0'
#1875
1'
b10011011 -
#1880
0'
#1885
1'
b10011100 -
#1890
0'
#1895
1'
b10011101 -
#1900
0'
#1905
1'
b10011110 -
#1910
0'
#1915
1'
b10011111 -
#1920
0'
#1925
1'
b10100000 -
#1930
0'
#1935
1'
b10100001 -
#1940
0'
#1945
1'
b10100010 -
#1950
0'
#1955
1'
b10100011 -
#1960
0'
#1965
1'
b10100100 -
#1970
0'
#1975
1'
b10100101 -
#1980
0'
#1985
1'
b10100110 -
#1990
0'
#1995
1'
b10100111 -
#2000
0'
#2005
1'
b10101000 -
#2010
0'
#2015
1'
b10101001 -
#2020
0'
#2025
1'
b10101010 -
#2030
0'
#2035
1'
b10101011 -
#2040
0'
#2045
1'
b10101100 -
#2050
0'
#2055
1'
b10101101 -
#2060
0'
#2065
1'
b10101110 -
#2070
0'
#2075
1'
b10101111 -
#2080
0'
#2085
1'
b10110000 -
#2090
0'
#2095
1'
b10110001 -
#2100
0'
#2105
1'
b10110010 -
#2110
0'
#2115
1'
b10110011 -
#2120
0'
#2125
1'
b10110100 -
#2130
0'
#2135
1'
b10110101 -
#2140
0'
#2145
1'
b10110110 -
#2150
0'
#2155
1'
b10110111 -
#2160
0'
#2165
1'
b10111000 -
#2170
0'
#2175
1'
b10111001 -
#2180
0'
#2185
1'
b10111010 -
#2190
0'
#2195
1'
b10111011 -
#2200
0'
#2205
1'
b10111100 -
#2210
0'
#2215
1'
b10111101 -
#2220
0'
#2225
1'
b10111110 -
#2230
0'
#2235
1'
b10111111 -
#2240
0'
#2245
1'
b11000000 -
#2250
0'
#2255
1'
b11000001 -
#2260
0'
#2265
1'
b11000010 -
#2270
0'
#2275
1'
b11000011 -
#2280
0'
#2285
1'
b11000100 -
#2290
0'
#2295
1'
b11000101 -
#2300
0'
#2305
1'
b11000110 -
#2310
0'
#2315
1'
b11000111 -
#2320
0'
#2325
1'
b11001000 -
#2330
0'
#2335
1'
b11001001 -
#2340
0'
#2345
1'
b11001010 -
#2350
0'
#2355
1'
b11001011 -
#2360
0'
#2365
1'
b11001100 -
#2370
0'
#2375
1'
b11001101 -
#2380
0'
#2385
1'
b11001110 -
#2390
0'
#2395
1'
b11001111 -
#2400
0'
#2405
1'
b11010000 -
#2410
0'
#2415
1'
b11010001 -
#2420
0'
#2425
1'
b11010010 -
#2430
0'
#2435
1'
b11010011 -
#2440
0'
#2445
1'
b11010100 -
#2450
0'
#2455
1'
b11010101 -
#2460
0'
#2465
1'
b11010110 -
#2470
0'
#2475
1'
b11010111 -
#2480
0'
#2485
1'
b11011000 -
#2490
0'
#2495
1'
b11011001 -
#2500
0'
#2505
1'
b11011010 -
#2510
0'
